<?xml version='1.0'?>
<sdf version='1.4'>
  <model name="bucket">
    <pose>0 0 0  0 0 0</pose>
    <static>false</static>  
      <link name="body">
                <inertial>
          <mass>0.41667</mass>
          <inertia>
            <ixx>0.00216667</ixx>
            <ixy>0.0</ixy>
            <ixz>0.0</ixz>
            <iyy>0.00216667</iyy>
            <iyz>0.0</iyz>
            <izz>0.0013333</izz>
          </inertia>
        </inertial>
        <visual name="visual">
          <geometry>
            <mesh><uri>file:///home/maciek/catkin_ws/src/hello_ros/urdf/bucket.dae</uri></mesh>
          </geometry>
        </visual>
        <collision name="collision">
          <geometry>
            <mesh><uri>file:///home/maciek/catkin_ws/src/hello_ros/urdf/bucket.dae</uri></mesh>
          </geometry>
        </collision>
      </link>
    </model>
</sdf>
